Verification using System Verilog/SPI Slave/wave.vcd
$date
	Sat Aug 17 03:22:28 2024
$end
$version
	QuestaSim Version 10.6c
$end
$timescale
	1ps
$end

$scope module top_tb $end

$scope module DUT $end
$upscope $end

$scope module i_intf $end
$var wire 1 ! sclk $end
$var wire 1 " i_reset_n $end
$var reg 1 # mosi $end
$var reg 1 $ cs $end
$var reg 1 % miso $end
$var reg 8 & dout [7:0] $end
$upscope $end
$upscope $end
$enddefinitions $end
#0
$dumpvars
0#
0$
0%
bx &
0!
0"
$end
#2000
1"
#5000
1!
1#
#10000
0!
#15000
1!
b1xxxxxxx &
0#
#20000
0!
#25000
1!
b1xxxxxx &
#30000
0!
#35000
1!
b1xxxxx &
#40000
0!
#45000
1!
b1xxxx &
#50000
0!
#55000
1!
b1xxx &
#60000
0!
#65000
1!
b1xx &
1#
#70000
0!
#75000
1!
b1000001x &
0#
#80000
0!
#85000
1!
b1000001 &
#90000
0!
#95000
1!
1#
#100000
0!
#105000
1!
b10100000 &
#110000
0!
#115000
1!
b11010000 &
0#
#120000
0!
#125000
1!
b1101000 &
1#
#130000
0!
#135000
1!
b10110100 &
#140000
0!
#145000
1!
b11011010 &
0#
#150000
0!
#155000
1!
b1101101 &
1#
#160000
0!
#165000
1!
b10110110 &
0#
#170000
0!
#175000
1!
b1011011 &
1#
#180000
0!
#185000
1!
#190000
0!
#195000
1!
1%
0#
#200000
0!
#205000
1!
1#
#210000
0!
#215000
1!
0%
0#
#220000
0!
#225000
1!
1%
1#
#230000
0!
#235000
1!
#240000
0!
#245000
1!
0%
0#
#250000
0!
#255000
1!
1%
#260000
0!
#265000
1!
0%
#270000
0!
#275000
1!
1#
#280000
0!
#285000
1!
b10101101 &
0#
#290000
0!
#295000
1!
b1010110 &
1#
#300000
0!
#305000
1!
b10101011 &
#310000
0!
#315000
1!
b11010101 &
0#
#320000
0!
#325000
1!
b1101010 &
#330000
0!
#335000
1!
b110101 &
#340000
0!
#345000
1!
b11010 &
1#
#350000
0!
#355000
1!
b10001101 &
#360000
0!
#365000
1!
#370000
0!
#375000
1!
1%
0#
#380000
0!
#385000
1!
0%
#390000
0!
#395000
1!
1%
1#
#400000
0!
#405000
1!
0#
#410000
0!
#415000
1!
0%
1#
#420000
0!
#425000
1!
0#
#430000
0!
#435000
1!
1#
#440000
0!
#445000
1!
1%
0#
#450000
0!
#455000
1!
1#
#460000
0!
#465000
1!
b11000110 &
0#
#470000
0!
#475000
1!
b1100011 &
#480000
0!
#485000
1!
b110001 &
1#
#490000
0!
#495000
1!
b10011000 &
0#
#500000
0!
#505000
1!
b1001100 &
1#
#510000
0!
#515000
1!
b10100110 &
#520000
0!
#525000
1!
b11010011 &
#530000
0!
#535000
1!
b11101001 &
#540000
0!
#545000
1!
0#
#550000
0!
#555000
1!
#560000
0!
#565000
1!
0%
#570000
0!
#575000
1!
#580000
0!
#585000
1!
1%
1#
#590000
0!
#595000
1!
0%
0#
#600000
0!
#605000
1!
1%
#610000
0!
#615000
1!
#620000
0!
#625000
1!
#630000
0!
#635000
1!
1#
#640000
0!
#645000
1!
b11110100 &
#650000
0!
#655000
1!
b11111010 &
#660000
0!
#665000
1!
b11111101 &
0#
#670000
0!
#675000
1!
b1111110 &
1#
#680000
0!
#685000
1!
b10111111 &
#690000
0!
#695000
1!
b11011111 &
#700000
0!
#705000
1!
b11101111 &
0#
#710000
0!
#715000
1!
b1110111 &
#720000
0!
#725000
1!
#730000
0!
#735000
1!
b111011 &
1#
#740000
0!
#745000
1!
b10011101 &
#750000
0!
#755000
1!
b11001110 &
0#
#760000
0!
#765000
1!
b1100111 &
#770000
0!
#775000
1!
b110011 &
1#
#780000
0!
#785000
1!
b10011001 &
0#
#790000
0!
#795000
1!
b1001100 &
1#
#800000
0!
#805000
1!
b10100110 &
#810000
0!
#815000
1!
#820000
0!
#825000
1!
0%
#830000
0!
#835000
1!
1%
#840000
0!
#845000
1!
0#
#850000
0!
#855000
1!
0%
1#
#860000
0!
#865000
1!
#870000
0!
#875000
1!
1%
#880000
0!
#885000
1!
0%
#890000
0!
#895000
1!
1%
#900000
0!
#905000
1!
#910000
0!
#915000
1!
0%
0#
#920000
0!
#925000
1!
1%
1#
#930000
0!
#935000
1!
#940000
0!
#945000
1!
0%
#950000
0!
#955000
1!
0#
#960000
0!
#965000
1!
1%
#970000
0!
#975000
1!
0%
1#
#980000
0!
#985000
1!
1%
#990000
0!
#995000
1!
0#
#1000000
0!
#1005000
1!
0%
#1010000
0!
#1015000
1!
1%
#1020000
0!
#1025000
1!
#1030000
0!
#1035000
1!
0%
#1040000
0!
#1045000
1!
#1050000
0!
#1055000
1!
1%
#1060000
0!
#1065000
1!
0%
#1070000
0!
#1075000
1!
1%
#1080000
0!
#1085000
1!
#1090000
0!
#1095000
1!
b1010011 &
